<deployment-project plugin="plugin.ezdeploy" plugin-version="1.0">
  <configuration file="D:\00_MUTHUKUMAR\WORKS\00_Office\01_Parse_Ftp_Dump_From_Table\parse_ftp_dump_updated_new.prj" location="D:\00_MUTHUKUMAR\WORKS\00_Office\01_Parse_Ftp_Dump_From_Table" name="parse_ftp_dump_updated_new" preferred-package-location="D:\00_MUTHUKUMAR\WORKS\00_Office\01_Parse_Ftp_Dump_From_Table\parse_ftp_dump_updated_new\for_redistribution" preferred-package-type="package.type.exe" target="target.ezdeploy.standalone" target-name="Application Compiler">
    <param.appname>parse_ftp_dump_updated_new_from_table</param.appname>
    <param.icon />
    <param.icons />
    <param.version>1.0</param.version>
    <param.authnamewatermark />
    <param.email />
    <param.company />
    <param.summary />
    <param.description />
    <param.screenshot />
    <param.guid />
    <param.installpath.string>\parse_ftp_dump_updated_new_from_table\</param.installpath.string>
    <param.installpath.combo>option.installpath.programfiles</param.installpath.combo>
    <param.logo />
    <param.install.notes />
    <param.target.install.notes />
    <param.intermediate>${PROJECT_ROOT}\parse_ftp_dump_updated_new\for_testing</param.intermediate>
    <param.files.only>${PROJECT_ROOT}\parse_ftp_dump_updated_new\for_redistribution_files_only</param.files.only>
    <param.output>${PROJECT_ROOT}\parse_ftp_dump_updated_new\for_redistribution</param.output>
    <param.logdir>${PROJECT_ROOT}\parse_ftp_dump_updated_new</param.logdir>
    <param.enable.clean.build>false</param.enable.clean.build>
    <param.user.defined.mcr.options />
    <param.embed.ctf>true</param.embed.ctf>
    <param.target.type>subtarget.standalone</param.target.type>
    <param.support.packages />
    <param.web.mcr>false</param.web.mcr>
    <param.package.mcr>true</param.package.mcr>
    <param.no.mcr>false</param.no.mcr>
    <param.web.mcr.name>MyAppInstaller_web</param.web.mcr.name>
    <param.package.mcr.name>MyAppInstaller_mcr</param.package.mcr.name>
    <param.no.mcr.name>MyAppInstaller_app</param.no.mcr.name>
    <param.windows.command.prompt>true</param.windows.command.prompt>
    <param.create.log>false</param.create.log>
    <param.log.file />
    <unset>
      <param.icon />
      <param.icons />
      <param.version />
      <param.authnamewatermark />
      <param.email />
      <param.company />
      <param.summary />
      <param.description />
      <param.screenshot />
      <param.guid />
      <param.installpath.string />
      <param.installpath.combo />
      <param.logo />
      <param.target.install.notes />
      <param.intermediate />
      <param.files.only />
      <param.output />
      <param.logdir />
      <param.enable.clean.build />
      <param.user.defined.mcr.options />
      <param.embed.ctf />
      <param.target.type />
      <param.support.packages />
      <param.no.mcr />
      <param.web.mcr.name />
      <param.package.mcr.name />
      <param.no.mcr.name />
      <param.windows.command.prompt />
      <param.create.log />
      <param.log.file />
    </unset>
    <fileset.main>
      <file>${PROJECT_ROOT}\parse_ftp_dump_updated_new_using_table.m</file>
    </fileset.main>
    <fileset.resources>
      <file>${PROJECT_ROOT}\mysql-connector-java-5.1.25-bin.jar</file>
    </fileset.resources>
    <fileset.package />
    <fileset.depfun>
      <file>${PROJECT_ROOT}\connect_to_database.m</file>
      <file>${PROJECT_ROOT}\Error_Log_FileName_Line_Number.log</file>
      <file>${PROJECT_ROOT}\Error_Log_FileName_Line_Number.m</file>
      <file>${PROJECT_ROOT}\Fetch_DB_Data.m</file>
      <file>${PROJECT_ROOT}\Find_Missing_MaturityData_Common.m</file>
      <file>${PROJECT_ROOT}\Get_Asset_Class_4_CellArray.m</file>
      <file>${PROJECT_ROOT}\get_System_Date_Format.m</file>
      <file>${PROJECT_ROOT}\get_System_Date_Format_Sub_Function.m</file>
      <file>${PROJECT_ROOT}\Get_Underlying_Traders_Value_Table.m</file>
      <file>${PROJECT_ROOT}\Helper Files\cellStrfind.m</file>
      <file>${PROJECT_ROOT}\Helper Files\cellStrfind_exact.m</file>
      <file>${PROJECT_ROOT}\Helper Files\cellStrfind_Perfect.m</file>
      <file>${PROJECT_ROOT}\Helper Files\getXLSFilename.m</file>
      <file>${PROJECT_ROOT}\Helper Files\isnumericequal.m</file>
      <file>${PROJECT_ROOT}\parse_cashequity_file.m</file>
      <file>${PROJECT_ROOT}\parse_equity_file.m</file>
      <file>${PROJECT_ROOT}\parse_future_file_updated.m</file>
      <file>${PROJECT_ROOT}\parse_fx_future_file.m</file>
      <file>${PROJECT_ROOT}\parse_option_file_modified.m</file>
      <file>${PROJECT_ROOT}\read_from_database.m</file>
      <file>${PROJECT_ROOT}\utilgetvaliddatearray.m</file>
      <file>${PROJECT_ROOT}\utilgetvalidnumericarray.m</file>
      <file>${PROJECT_ROOT}\vanillaimpvolbybs.m</file>
      <file>${PROJECT_ROOT}\xls_delete_sheets.m</file>
    </fileset.depfun>
    <build-deliverables>
      <file location="${PROJECT_ROOT}\parse_ftp_dump_updated_new\for_testing" name="readme.txt" optional="true">D:\00_MUTHUKUMAR\WORKS\00_Office\01_Parse_Ftp_Dump_From_Table\parse_ftp_dump_updated_new\for_testing\readme.txt</file>
      <file location="${PROJECT_ROOT}\parse_ftp_dump_updated_new\for_testing" name="splash.png" optional="false">D:\00_MUTHUKUMAR\WORKS\00_Office\01_Parse_Ftp_Dump_From_Table\parse_ftp_dump_updated_new\for_testing\splash.png</file>
      <file location="${PROJECT_ROOT}\parse_ftp_dump_updated_new\for_testing" name="parse_ftp_dump_updated_new_from_table.exe" optional="false">D:\00_MUTHUKUMAR\WORKS\00_Office\01_Parse_Ftp_Dump_From_Table\parse_ftp_dump_updated_new\for_testing\parse_ftp_dump_updated_new_from_table.exe</file>
    </build-deliverables>
    <workflow />
    <matlab>
      <root>D:\MATLAB\R2016b</root>
      <toolboxes />
    </matlab>
    <platform>
      <unix>false</unix>
      <mac>false</mac>
      <windows>true</windows>
      <win2k>false</win2k>
      <winxp>false</winxp>
      <vista>false</vista>
      <linux>false</linux>
      <solaris>false</solaris>
      <osver>6.1</osver>
      <os32>false</os32>
      <os64>true</os64>
      <arch>win64</arch>
      <matlab>true</matlab>
    </platform>
  </configuration>
</deployment-project>