<deployment-project plugin="plugin.ezdeploy" plugin-version="1.0">
  <configuration build-checksum="2427831359" file="D:\00_MUTHUKUMAR\WORKS\00_Office\DB2MurexMigration\OPERA Reports GUI\OPERA_REPORTS.prj" location="D:\00_MUTHUKUMAR\WORKS\00_Office\DB2MurexMigration\OPERA Reports GUI" name="OPERA_REPORTS" preferred-package-location="D:\00_MUTHUKUMAR\WORKS\00_Office\DB2MurexMigration\OPERA Reports GUI\OPERA_REPORTS\for_redistribution" preferred-package-type="package.type.exe" target="target.ezdeploy.standalone" target-name="Application Compiler">
    <param.appname>OPERA_REPORTS</param.appname>
    <param.icon />
    <param.icons />
    <param.version>1.0</param.version>
    <param.authnamewatermark />
    <param.email />
    <param.company />
    <param.summary />
    <param.description />
    <param.screenshot />
    <param.guid />
    <param.installpath.string>\OPERA_REPORTS\</param.installpath.string>
    <param.installpath.combo>option.installpath.programfiles</param.installpath.combo>
    <param.logo />
    <param.install.notes />
    <param.target.install.notes />
    <param.intermediate>${PROJECT_ROOT}\OPERA_REPORTS\for_testing</param.intermediate>
    <param.files.only>${PROJECT_ROOT}\OPERA_REPORTS\for_redistribution_files_only</param.files.only>
    <param.output>${PROJECT_ROOT}\OPERA_REPORTS\for_redistribution</param.output>
    <param.logdir>${PROJECT_ROOT}\OPERA_REPORTS</param.logdir>
    <param.enable.clean.build>false</param.enable.clean.build>
    <param.user.defined.mcr.options />
    <param.embed.ctf>true</param.embed.ctf>
    <param.target.type>subtarget.standalone</param.target.type>
    <param.support.packages />
    <param.web.mcr>false</param.web.mcr>
    <param.package.mcr>true</param.package.mcr>
    <param.no.mcr>false</param.no.mcr>
    <param.web.mcr.name>MyAppInstaller_web</param.web.mcr.name>
    <param.package.mcr.name>MyAppInstaller_mcr</param.package.mcr.name>
    <param.no.mcr.name>MyAppInstaller_app</param.no.mcr.name>
    <param.windows.command.prompt>true</param.windows.command.prompt>
    <param.create.log>false</param.create.log>
    <param.log.file />
    <unset>
      <param.icon />
      <param.icons />
      <param.version />
      <param.authnamewatermark />
      <param.email />
      <param.company />
      <param.summary />
      <param.description />
      <param.screenshot />
      <param.guid />
      <param.installpath.string />
      <param.installpath.combo />
      <param.logo />
      <param.target.install.notes />
      <param.intermediate />
      <param.files.only />
      <param.output />
      <param.logdir />
      <param.enable.clean.build />
      <param.user.defined.mcr.options />
      <param.embed.ctf />
      <param.target.type />
      <param.support.packages />
      <param.no.mcr />
      <param.web.mcr.name />
      <param.package.mcr.name />
      <param.no.mcr.name />
      <param.windows.command.prompt />
      <param.create.log />
      <param.log.file />
    </unset>
    <fileset.main>
      <file>${PROJECT_ROOT}\generate_all_OPERA_reports.m</file>
    </fileset.main>
    <fileset.resources>
      <file>${PROJECT_ROOT}\mysql-connector-java-5.1.25-bin.jar</file>
    </fileset.resources>
    <fileset.package />
    <fileset.depfun>
      <file>D:\00_MUTHUKUMAR\WORKS\00_Office\DB2MurexMigration\Addin Functions\calculate_xl_percentile.m</file>
      <file>D:\00_MUTHUKUMAR\WORKS\00_Office\DB2MurexMigration\Addin Functions\derivativepricer_previous_settle_vols.m</file>
      <file>D:\00_MUTHUKUMAR\WORKS\00_Office\DB2MurexMigration\Addin Functions\floatvolcurvelinear.m</file>
      <file>D:\00_MUTHUKUMAR\WORKS\00_Office\DB2MurexMigration\Database System Files\calculate_pricing_views.m</file>
      <file>D:\00_MUTHUKUMAR\WORKS\00_Office\DB2MurexMigration\Database System Files\cell2sum_Row_Col.m</file>
      <file>D:\00_MUTHUKUMAR\WORKS\00_Office\DB2MurexMigration\Database System Files\cellStrfind_exact.m</file>
      <file>D:\00_MUTHUKUMAR\WORKS\00_Office\DB2MurexMigration\Database System Files\compute_monthend_eod_values.m</file>
      <file>D:\00_MUTHUKUMAR\WORKS\00_Office\DB2MurexMigration\Database System Files\compute_monthend_mtm_values.m</file>
      <file>D:\00_MUTHUKUMAR\WORKS\00_Office\DB2MurexMigration\Database System Files\connect_to_database.m</file>
      <file>D:\00_MUTHUKUMAR\WORKS\00_Office\DB2MurexMigration\Database System Files\DB_Murex_Reports.xlsx</file>
      <file>D:\00_MUTHUKUMAR\WORKS\00_Office\DB2MurexMigration\Database System Files\Deal Consolidation\getvalidarray.m</file>
      <file>D:\00_MUTHUKUMAR\WORKS\00_Office\DB2MurexMigration\Database System Files\derivativepricer_interpvols_previous_settle_vols.m</file>
      <file>D:\00_MUTHUKUMAR\WORKS\00_Office\DB2MurexMigration\Database System Files\derivativepricerinterface_previous_settle_vols.m</file>
      <file>D:\00_MUTHUKUMAR\WORKS\00_Office\DB2MurexMigration\Database System Files\Fetch_DB_Data.m</file>
      <file>D:\00_MUTHUKUMAR\WORKS\00_Office\DB2MurexMigration\Database System Files\generate_accounting_report.m</file>
      <file>D:\00_MUTHUKUMAR\WORKS\00_Office\DB2MurexMigration\Database System Files\generate_accounting_VAR_report.m</file>
      <file>D:\00_MUTHUKUMAR\WORKS\00_Office\DB2MurexMigration\Database System Files\generate_compliance_delta_reports.m</file>
      <file>D:\00_MUTHUKUMAR\WORKS\00_Office\DB2MurexMigration\Database System Files\generate_compliance_report_summary.m</file>
      <file>D:\00_MUTHUKUMAR\WORKS\00_Office\DB2MurexMigration\Database System Files\generate_compliance_summary_view.m</file>
      <file>D:\00_MUTHUKUMAR\WORKS\00_Office\DB2MurexMigration\Database System Files\generate_compliance_trade_view.m</file>
      <file>D:\00_MUTHUKUMAR\WORKS\00_Office\DB2MurexMigration\Database System Files\generate_counterparty_delta_report.m</file>
      <file>D:\00_MUTHUKUMAR\WORKS\00_Office\DB2MurexMigration\Database System Files\generate_currency_report.m</file>
      <file>D:\00_MUTHUKUMAR\WORKS\00_Office\DB2MurexMigration\Database System Files\generate_ff_greeks_report.m</file>
      <file>D:\00_MUTHUKUMAR\WORKS\00_Office\DB2MurexMigration\Database System Files\generate_ff_portfolio_report.m</file>
      <file>D:\00_MUTHUKUMAR\WORKS\00_Office\DB2MurexMigration\Database System Files\generate_ff_position_report.m</file>
      <file>D:\00_MUTHUKUMAR\WORKS\00_Office\DB2MurexMigration\Database System Files\generate_futures_report.m</file>
      <file>D:\00_MUTHUKUMAR\WORKS\00_Office\DB2MurexMigration\Database System Files\generate_futures_report_qf5.m</file>
      <file>D:\00_MUTHUKUMAR\WORKS\00_Office\DB2MurexMigration\Database System Files\generate_greek_pandl_report.m</file>
      <file>D:\00_MUTHUKUMAR\WORKS\00_Office\DB2MurexMigration\Database System Files\generate_mo_fxforwards_report.m</file>
      <file>D:\00_MUTHUKUMAR\WORKS\00_Office\DB2MurexMigration\Database System Files\generate_mo_fxfutures_report.m</file>
      <file>D:\00_MUTHUKUMAR\WORKS\00_Office\DB2MurexMigration\Database System Files\generate_mo_summary_monthwise_report.m</file>
      <file>D:\00_MUTHUKUMAR\WORKS\00_Office\DB2MurexMigration\Database System Files\generate_mo_summary_report.m</file>
      <file>D:\00_MUTHUKUMAR\WORKS\00_Office\DB2MurexMigration\Database System Files\generate_monthend_eod_report.m</file>
      <file>D:\00_MUTHUKUMAR\WORKS\00_Office\DB2MurexMigration\Database System Files\generate_net_fut_portfoliowise_report.m</file>
      <file>D:\00_MUTHUKUMAR\WORKS\00_Office\DB2MurexMigration\Database System Files\generate_net_fut_prodwise_report.m</file>
      <file>D:\00_MUTHUKUMAR\WORKS\00_Office\DB2MurexMigration\Database System Files\generate_netting_pnl_report.m</file>
      <file>D:\00_MUTHUKUMAR\WORKS\00_Office\DB2MurexMigration\Database System Files\generate_opt_real_unr_report.m</file>
      <file>D:\00_MUTHUKUMAR\WORKS\00_Office\DB2MurexMigration\Database System Files\generate_options_report.m</file>
      <file>D:\00_MUTHUKUMAR\WORKS\00_Office\DB2MurexMigration\Database System Files\generate_pandl_monitoring_report.m</file>
      <file>D:\00_MUTHUKUMAR\WORKS\00_Office\DB2MurexMigration\Database System Files\generate_pnp_reports.m</file>
      <file>D:\00_MUTHUKUMAR\WORKS\00_Office\DB2MurexMigration\Database System Files\generate_pnp_reports_agf.m</file>
      <file>D:\00_MUTHUKUMAR\WORKS\00_Office\DB2MurexMigration\Database System Files\generate_pnp_reports_cfs.m</file>
      <file>D:\00_MUTHUKUMAR\WORKS\00_Office\DB2MurexMigration\Database System Files\generate_portfolio_delta_report.m</file>
      <file>D:\00_MUTHUKUMAR\WORKS\00_Office\DB2MurexMigration\Database System Files\generate_previous_accounting_nc_monthwise_tr_pnl_report.m</file>
      <file>D:\00_MUTHUKUMAR\WORKS\00_Office\DB2MurexMigration\Database System Files\generate_previous_accounting_tr_pnl_report.m</file>
      <file>D:\00_MUTHUKUMAR\WORKS\00_Office\DB2MurexMigration\Database System Files\generate_previous_settle_accounting_nc_monthwise_traders_report.m</file>
      <file>D:\00_MUTHUKUMAR\WORKS\00_Office\DB2MurexMigration\Database System Files\generate_previous_settle_accounting_traders_report.m</file>
      <file>D:\00_MUTHUKUMAR\WORKS\00_Office\DB2MurexMigration\Database System Files\generate_riskoffice_rms_report.m</file>
      <file>D:\00_MUTHUKUMAR\WORKS\00_Office\DB2MurexMigration\Database System Files\generate_trade_query_report.m</file>
      <file>D:\00_MUTHUKUMAR\WORKS\00_Office\DB2MurexMigration\Database System Files\generate_traders_report_summary.m</file>
      <file>D:\00_MUTHUKUMAR\WORKS\00_Office\DB2MurexMigration\Database System Files\generate_VAR_report.m</file>
      <file>D:\00_MUTHUKUMAR\WORKS\00_Office\DB2MurexMigration\Database System Files\get_System_Date_Format.m</file>
      <file>D:\00_MUTHUKUMAR\WORKS\00_Office\DB2MurexMigration\Database System Files\get_System_Date_Format_Sub_Function.m</file>
      <file>D:\00_MUTHUKUMAR\WORKS\00_Office\DB2MurexMigration\Database System Files\Get_User_Want_Business_Days.m</file>
      <file>D:\00_MUTHUKUMAR\WORKS\00_Office\DB2MurexMigration\Database System Files\interpolate_settlement_vol_strike_previous_settle_vols.m</file>
      <file>D:\00_MUTHUKUMAR\WORKS\00_Office\DB2MurexMigration\Database System Files\interpolate_traders_vol_strike.m</file>
      <file>D:\00_MUTHUKUMAR\WORKS\00_Office\DB2MurexMigration\Database System Files\PnL_Calculation_TR_Reports.m</file>
      <file>D:\00_MUTHUKUMAR\WORKS\00_Office\DB2MurexMigration\Database System Files\read_from_database.m</file>
      <file>D:\00_MUTHUKUMAR\WORKS\00_Office\DB2MurexMigration\Database System Files\Sensitivity Analysis\consolidatedata.m</file>
      <file>D:\00_MUTHUKUMAR\WORKS\00_Office\DB2MurexMigration\Database System Files\update_curr_mult_table.m</file>
      <file>D:\00_MUTHUKUMAR\WORKS\00_Office\DB2MurexMigration\Database System Files\update_future_cont_series_table.m</file>
      <file>D:\00_MUTHUKUMAR\WORKS\00_Office\DB2MurexMigration\Database System Files\update_option_cont_series_table.m</file>
      <file>D:\00_MUTHUKUMAR\WORKS\00_Office\DB2MurexMigration\Database System Files\upload_in_database.m</file>
      <file>D:\00_MUTHUKUMAR\WORKS\00_Office\DB2MurexMigration\DynamicVAR\cellStrfind.m</file>
      <file>D:\00_MUTHUKUMAR\WORKS\00_Office\DB2MurexMigration\Helper Files\customcsvwrite.m</file>
      <file>D:\00_MUTHUKUMAR\WORKS\00_Office\DB2MurexMigration\Helper Files\getComputerName.m</file>
      <file>D:\00_MUTHUKUMAR\WORKS\00_Office\DB2MurexMigration\Helper Files\getCurrentDateTimestamp.m</file>
      <file>D:\00_MUTHUKUMAR\WORKS\00_Office\DB2MurexMigration\Helper Files\getXLSFilename.m</file>
      <file>D:\00_MUTHUKUMAR\WORKS\00_Office\DB2MurexMigration\Helper Files\isnumericequal.m</file>
      <file>D:\00_MUTHUKUMAR\WORKS\00_Office\DB2MurexMigration\Helper Files\utilgetvaliddatearray.m</file>
      <file>D:\00_MUTHUKUMAR\WORKS\00_Office\DB2MurexMigration\Helper Files\utilgetvalidnumericarray.m</file>
      <file>D:\00_MUTHUKUMAR\WORKS\00_Office\DB2MurexMigration\Helper Files\xls_change_activesheet.m</file>
      <file>D:\00_MUTHUKUMAR\WORKS\00_Office\DB2MurexMigration\Helper Files\xls_check_if_open.m</file>
      <file>D:\00_MUTHUKUMAR\WORKS\00_Office\DB2MurexMigration\Helper Files\xls_delete_sheets.m</file>
      <file>${PROJECT_ROOT}\uicellect_title.m</file>
      <file>D:\00_MUTHUKUMAR\WORKS\00_Office\DB2MurexMigration\Pricer Classes\ArithmeticAsianTurnbullAndWakemanModel.m</file>
      <file>D:\00_MUTHUKUMAR\WORKS\00_Office\DB2MurexMigration\Pricer Classes\AverageSwapATDCrossCurrency.m</file>
      <file>D:\00_MUTHUKUMAR\WORKS\00_Office\DB2MurexMigration\Pricer Classes\AverageSwapATDNativeCurrency.m</file>
      <file>D:\00_MUTHUKUMAR\WORKS\00_Office\DB2MurexMigration\Pricer Classes\CallPutSpread.m</file>
      <file>D:\00_MUTHUKUMAR\WORKS\00_Office\DB2MurexMigration\Pricer Classes\EuropeanOptionAmericanBarrier.m</file>
      <file>D:\00_MUTHUKUMAR\WORKS\00_Office\DB2MurexMigration\Pricer Classes\EuropeanOptionEuropeanBarrier.m</file>
      <file>D:\00_MUTHUKUMAR\WORKS\00_Office\DB2MurexMigration\Pricer Classes\FinancialInstruments.m</file>
      <file>D:\00_MUTHUKUMAR\WORKS\00_Office\DB2MurexMigration\Pricer Classes\SpreadOptionBjerksundModel.m</file>
      <file>D:\00_MUTHUKUMAR\WORKS\00_Office\DB2MurexMigration\Pricer Classes\VanillaOptionBlackScholesModel.m</file>
    </fileset.depfun>
    <build-deliverables>
      <file location="${PROJECT_ROOT}\OPERA_REPORTS\for_testing" name="readme.txt" optional="true">D:\00_MUTHUKUMAR\WORKS\00_Office\DB2MurexMigration\OPERA Reports GUI\OPERA_REPORTS\for_testing\readme.txt</file>
      <file location="${PROJECT_ROOT}\OPERA_REPORTS\for_testing" name="OPERA_REPORTS.exe" optional="false">D:\00_MUTHUKUMAR\WORKS\00_Office\DB2MurexMigration\OPERA Reports GUI\OPERA_REPORTS\for_testing\OPERA_REPORTS.exe</file>
      <file location="${PROJECT_ROOT}\OPERA_REPORTS\for_testing" name="splash.png" optional="false">D:\00_MUTHUKUMAR\WORKS\00_Office\DB2MurexMigration\OPERA Reports GUI\OPERA_REPORTS\for_testing\splash.png</file>
    </build-deliverables>
    <workflow />
    <matlab>
      <root>D:\MATLAB\R2016b</root>
      <toolboxes />
    </matlab>
    <platform>
      <unix>false</unix>
      <mac>false</mac>
      <windows>true</windows>
      <win2k>false</win2k>
      <winxp>false</winxp>
      <vista>false</vista>
      <linux>false</linux>
      <solaris>false</solaris>
      <osver>6.1</osver>
      <os32>false</os32>
      <os64>true</os64>
      <arch>win64</arch>
      <matlab>true</matlab>
    </platform>
  </configuration>
</deployment-project>