<deployment-project plugin="plugin.ezdeploy" plugin-version="1.0">
  <configuration build-checksum="4066291506" file="D:\Bala\BALA\CTRM_2_OPERA Interface\19-11-2019\CTRM_2_OPERA\CTRM_2_OPERA.prj" location="D:\Bala\BALA\CTRM_2_OPERA Interface\19-11-2019\CTRM_2_OPERA" name="CTRM_2_OPERA" preferred-package-location="D:\Bala\BALA\CTRM_2_OPERA Interface\19-11-2019\CTRM_2_OPERA\CTRM_2_OPERA\for_redistribution" preferred-package-type="package.type.exe" target="target.ezdeploy.standalone" target-name="Application Compiler">
    <param.appname>CTRM_2_OPERA</param.appname>
    <param.icon />
    <param.icons />
    <param.version>1.0</param.version>
    <param.authnamewatermark />
    <param.email />
    <param.company />
    <param.summary />
    <param.description />
    <param.screenshot />
    <param.guid />
    <param.installpath.string>\CTRM_2_OPERA\</param.installpath.string>
    <param.installpath.combo>option.installpath.programfiles</param.installpath.combo>
    <param.logo />
    <param.install.notes />
    <param.target.install.notes />
    <param.intermediate>${PROJECT_ROOT}\CTRM_2_OPERA\for_testing</param.intermediate>
    <param.files.only>${PROJECT_ROOT}\CTRM_2_OPERA\for_redistribution_files_only</param.files.only>
    <param.output>${PROJECT_ROOT}\CTRM_2_OPERA\for_redistribution</param.output>
    <param.logdir>${PROJECT_ROOT}\CTRM_2_OPERA</param.logdir>
    <param.enable.clean.build>false</param.enable.clean.build>
    <param.user.defined.mcr.options />
    <param.embed.ctf>true</param.embed.ctf>
    <param.target.type>subtarget.standalone</param.target.type>
    <param.support.packages />
    <param.web.mcr>true</param.web.mcr>
    <param.package.mcr>false</param.package.mcr>
    <param.no.mcr>false</param.no.mcr>
    <param.web.mcr.name>MyAppInstaller_web</param.web.mcr.name>
    <param.package.mcr.name>MyAppInstaller_mcr</param.package.mcr.name>
    <param.no.mcr.name>MyAppInstaller_app</param.no.mcr.name>
    <param.windows.command.prompt>true</param.windows.command.prompt>
    <param.create.log>false</param.create.log>
    <param.log.file />
    <unset>
      <param.icon />
      <param.icons />
      <param.version />
      <param.authnamewatermark />
      <param.email />
      <param.company />
      <param.summary />
      <param.description />
      <param.screenshot />
      <param.guid />
      <param.installpath.string />
      <param.installpath.combo />
      <param.logo />
      <param.target.install.notes />
      <param.intermediate />
      <param.files.only />
      <param.output />
      <param.logdir />
      <param.enable.clean.build />
      <param.user.defined.mcr.options />
      <param.embed.ctf />
      <param.target.type />
      <param.support.packages />
      <param.web.mcr />
      <param.package.mcr />
      <param.no.mcr />
      <param.web.mcr.name />
      <param.package.mcr.name />
      <param.no.mcr.name />
      <param.windows.command.prompt />
      <param.create.log />
      <param.log.file />
    </unset>
    <fileset.main>
      <file>${PROJECT_ROOT}\CTRM_2_OPERA.m</file>
    </fileset.main>
    <fileset.resources>
      <file>${PROJECT_ROOT}\CTRM_Future_Option_2_TR_Format.m</file>
      <file>${PROJECT_ROOT}\mssql-jdbc-6.4.0.jre7.jar</file>
      <file>${PROJECT_ROOT}\mysql-connector-java-5.1.25-bin.jar</file>
    </fileset.resources>
    <fileset.package />
    <fileset.depfun>
      <file>${PROJECT_ROOT}\cellStrfind.m</file>
      <file>${PROJECT_ROOT}\cellStrfind_exact.m</file>
      <file>${PROJECT_ROOT}\connect_to_database.m</file>
      <file>${PROJECT_ROOT}\connect_to_database_MS_SQL.m</file>
      <file>${PROJECT_ROOT}\CTRM_2_OPERA.fig</file>
      <file>${PROJECT_ROOT}\Fetch_DB_Data.m</file>
      <file>${PROJECT_ROOT}\Find_Minimum_CTRM_ViewDate.m</file>
      <file>${PROJECT_ROOT}\Get_BU_Prcode.m</file>
      <file>${PROJECT_ROOT}\Get_OverAll_Dump.m</file>
      <file>${PROJECT_ROOT}\get_System_Date_Format.m</file>
      <file>${PROJECT_ROOT}\get_System_Date_Format_Sub_Function.m</file>
      <file>${PROJECT_ROOT}\Get_User_Want_Business_Days.m</file>
      <file>${PROJECT_ROOT}\getLastTradeId.m</file>
      <file>${PROJECT_ROOT}\getTradeID_4_Cell_Array.m</file>
      <file>${PROJECT_ROOT}\getXLSFilename.m</file>
      <file>${PROJECT_ROOT}\Job_Done.m</file>
      <file>${PROJECT_ROOT}\Job_Start.m</file>
      <file>${PROJECT_ROOT}\read_from_database.m</file>
      <file>${PROJECT_ROOT}\read_from_database_MS_SQL.m</file>
      <file>${PROJECT_ROOT}\Update_2_Database.m</file>
      <file>${PROJECT_ROOT}\xls_change_activesheet.m</file>
      <file>${PROJECT_ROOT}\xls_delete_sheets.m</file>
    </fileset.depfun>
    <build-deliverables>
      <file location="${PROJECT_ROOT}\CTRM_2_OPERA\for_testing" name="splash.png" optional="false">D:\Bala\BALA\CTRM_2_OPERA Interface\19-11-2019\CTRM_2_OPERA\CTRM_2_OPERA\for_testing\splash.png</file>
      <file location="${PROJECT_ROOT}\CTRM_2_OPERA\for_testing" name="CTRM_2_OPERA.exe" optional="false">D:\Bala\BALA\CTRM_2_OPERA Interface\19-11-2019\CTRM_2_OPERA\CTRM_2_OPERA\for_testing\CTRM_2_OPERA.exe</file>
      <file location="${PROJECT_ROOT}\CTRM_2_OPERA\for_testing" name="readme.txt" optional="true">D:\Bala\BALA\CTRM_2_OPERA Interface\19-11-2019\CTRM_2_OPERA\CTRM_2_OPERA\for_testing\readme.txt</file>
    </build-deliverables>
    <workflow />
    <matlab>
      <root>D:\MATLAB\R2016b</root>
      <toolboxes />
    </matlab>
    <platform>
      <unix>false</unix>
      <mac>false</mac>
      <windows>true</windows>
      <win2k>false</win2k>
      <winxp>false</winxp>
      <vista>false</vista>
      <linux>false</linux>
      <solaris>false</solaris>
      <osver>6.1</osver>
      <os32>false</os32>
      <os64>true</os64>
      <arch>win64</arch>
      <matlab>true</matlab>
    </platform>
  </configuration>
</deployment-project>