<deployment-project plugin="plugin.ezdeploy" plugin-version="1.0">
  <configuration build-checksum="52527821" file="D:\00_MUTHUKUMAR\WORKS\00_Office\DB2MurexMigration\Database System Files\Deals_and_Security_Generation.prj" location="D:\00_MUTHUKUMAR\WORKS\00_Office\DB2MurexMigration\Database System Files" name="Deals_and_Security_Generation" preferred-package-location="D:\00_MUTHUKUMAR\WORKS\00_Office\DB2MurexMigration\Database System Files\Deals_and_Security_Generation\for_redistribution" preferred-package-type="package.type.exe" target="target.ezdeploy.standalone" target-name="Application Compiler">
    <param.appname>Deals_and_Security_Generation</param.appname>
    <param.icon />
    <param.icons />
    <param.version>1.0</param.version>
    <param.authnamewatermark />
    <param.email />
    <param.company />
    <param.summary />
    <param.description />
    <param.screenshot />
    <param.guid />
    <param.installpath.string>\Deals_and_Security_Generation\</param.installpath.string>
    <param.installpath.combo>option.installpath.programfiles</param.installpath.combo>
    <param.logo />
    <param.install.notes />
    <param.target.install.notes />
    <param.intermediate>${PROJECT_ROOT}\Deals_and_Security_Generation\for_testing</param.intermediate>
    <param.files.only>${PROJECT_ROOT}\Deals_and_Security_Generation\for_redistribution_files_only</param.files.only>
    <param.output>${PROJECT_ROOT}\Deals_and_Security_Generation\for_redistribution</param.output>
    <param.logdir>${PROJECT_ROOT}\Deals_and_Security_Generation</param.logdir>
    <param.enable.clean.build>false</param.enable.clean.build>
    <param.user.defined.mcr.options />
    <param.embed.ctf>true</param.embed.ctf>
    <param.target.type>subtarget.standalone</param.target.type>
    <param.support.packages />
    <param.web.mcr>false</param.web.mcr>
    <param.package.mcr>true</param.package.mcr>
    <param.no.mcr>false</param.no.mcr>
    <param.web.mcr.name>MyAppInstaller_web</param.web.mcr.name>
    <param.package.mcr.name>MyAppInstaller_mcr</param.package.mcr.name>
    <param.no.mcr.name>MyAppInstaller_app</param.no.mcr.name>
    <param.windows.command.prompt>true</param.windows.command.prompt>
    <param.create.log>false</param.create.log>
    <param.log.file />
    <unset>
      <param.icon />
      <param.icons />
      <param.version />
      <param.authnamewatermark />
      <param.email />
      <param.company />
      <param.summary />
      <param.description />
      <param.screenshot />
      <param.guid />
      <param.installpath.string />
      <param.installpath.combo />
      <param.logo />
      <param.target.install.notes />
      <param.intermediate />
      <param.files.only />
      <param.output />
      <param.logdir />
      <param.enable.clean.build />
      <param.user.defined.mcr.options />
      <param.embed.ctf />
      <param.target.type />
      <param.support.packages />
      <param.no.mcr />
      <param.web.mcr.name />
      <param.package.mcr.name />
      <param.no.mcr.name />
      <param.windows.command.prompt />
      <param.create.log />
      <param.log.file />
    </unset>
    <fileset.main>
      <file>${PROJECT_ROOT}\run_deals_security_id_generation.m</file>
    </fileset.main>
    <fileset.resources>
      <file>${PROJECT_ROOT}\mysql-connector-java-5.1.25-bin.jar</file>
    </fileset.resources>
    <fileset.package />
    <fileset.depfun>
      <file>${PROJECT_ROOT}\cellStrfind_exact.m</file>
      <file>${PROJECT_ROOT}\connect_to_database.m</file>
      <file>${PROJECT_ROOT}\deals_security_id_generation.m</file>
      <file>${PROJECT_ROOT}\getLastTradeId.m</file>
      <file>${PROJECT_ROOT}\gettablecolumnnames.m</file>
      <file>${PROJECT_ROOT}\read_from_database.m</file>
      <file>${PROJECT_ROOT}\uicellect.m</file>
      <file>${PROJECT_ROOT}\xls_check_if_open.m</file>
      <file>${PROJECT_ROOT}\xls_delete_sheets.m</file>
      <file>D:\00_MUTHUKUMAR\WORKS\00_Office\DB2MurexMigration\DynamicVAR\cellStrfind.m</file>
      <file>D:\00_MUTHUKUMAR\WORKS\00_Office\DB2MurexMigration\Helper Files\getXLSFilename.m</file>
    </fileset.depfun>
    <build-deliverables>
      <file location="${PROJECT_ROOT}\Deals_and_Security_Generation\for_testing" name="splash.png" optional="false">D:\00_MUTHUKUMAR\WORKS\00_Office\DB2MurexMigration\Database System Files\Deals_and_Security_Generation\for_testing\splash.png</file>
      <file location="${PROJECT_ROOT}\Deals_and_Security_Generation\for_testing" name="readme.txt" optional="true">D:\00_MUTHUKUMAR\WORKS\00_Office\DB2MurexMigration\Database System Files\Deals_and_Security_Generation\for_testing\readme.txt</file>
      <file location="${PROJECT_ROOT}\Deals_and_Security_Generation\for_testing" name="Deals_and_Security_Generation.exe" optional="false">D:\00_MUTHUKUMAR\WORKS\00_Office\DB2MurexMigration\Database System Files\Deals_and_Security_Generation\for_testing\Deals_and_Security_Generation.exe</file>
    </build-deliverables>
    <workflow />
    <matlab>
      <root>D:\MATLAB\R2016b</root>
      <toolboxes />
    </matlab>
    <platform>
      <unix>false</unix>
      <mac>false</mac>
      <windows>true</windows>
      <win2k>false</win2k>
      <winxp>false</winxp>
      <vista>false</vista>
      <linux>false</linux>
      <solaris>false</solaris>
      <osver>6.1</osver>
      <os32>false</os32>
      <os64>true</os64>
      <arch>win64</arch>
      <matlab>true</matlab>
    </platform>
  </configuration>
</deployment-project>